…
``` r
## Sampling the first 50 rows of each df
LOCO_df_sample <- LOCO_df[0:50,]
LOCO_LFs_df_sample <- LOCO_LFs_df[0:50,]
```

``` r
LOCO_df_sample
```

    ## # A tibble: 50 × 20
    ##    doc_id URL    website seeds date  subco…¹ title txt   txt_n…² txt_n…³ txt_n…⁴
    ##    <chr>  <chr>  <chr>   <chr> <chr> <chr>   <chr> <chr>   <dbl>   <dbl>   <dbl>
    ##  1 C00001 https… humans… mich… 2016… conspi… The … "For…    4075     160     120
    ##  2 C00003 https… americ… 5g; … 2017… conspi… ATTO… "LEA…     940      67      35
    ##  3 C00004 https… 911tru… sadd… 2009… conspi… What… "\"……     728      69      62
    ##  4 C00005 https… rense.… canc… <NA>  conspi… Canc… "The…    5055     207       1
    ##  5 C00007 https… awaren… clim… <NA>  conspi… Scie… "Whi…     403      13       5
    ##  6 C00008 https… geopol… moon… 2018… conspi… CIA … "The…     554      24      14
    ##  7 C00009 https… saveth… osam… <NA>  conspi… The … "If …    1198      85      21
    ##  8 C0000a https… whatre… cia.… <NA>  conspi… The … "Sid…     962      62      51
    ##  9 C0000b https… usawat… osam… <NA>  conspi… Trum… "Thi…     138       7       2
    ## 10 C0000c https… neonne… canc… 2018… conspi… Jour… "A b…     806      39      10
    ## # … with 40 more rows, 9 more variables: topic_k100 <chr>, topic_k200 <chr>,
    ## #   topic_k300 <chr>, mention_conspiracy <dbl>,
    ## #   conspiracy_representative <lgl>, cosine_similarity <dbl>, FB_shares <dbl>,
    ## #   FB_comments <dbl>, FB_reactions <dbl>, and abbreviated variable names
    ## #   ¹​subcorpus, ²​txt_nwords, ³​txt_nsentences, ⁴​txt_nparagraphs

``` r
LOCO_LFs_df_sample
```

    ## # A tibble: 50 × 288
    ##    doc_id LIWC_WC LIWC_Analytic LIWC_C…¹ LIWC_…² LIWC_…³ LIWC_…⁴ LIWC_…⁵ LIWC_…⁶
    ##    <chr>    <dbl>         <dbl>    <dbl>   <dbl>   <dbl>   <dbl>   <dbl>   <dbl>
    ##  1 C00001    4051          88.9     77.0   14.0     5.22    22.3    27.2    79.3
    ##  2 C00003     929          99       68.2   10.4    37.2     14.3    31.1    61.0
    ##  3 C00004     706          90.0     53.4   29.1    25.8     30.7    26.9    75.1
    ##  4 C00005    4989          95.6     63.3   13.8    22.0     24.1    27.6    74.1
    ##  5 C00007     387          30.3     93.9    9.63   74.0     29.8    12.7    86.8
    ##  6 C00008     568          95.3     78.6   22.0     7.48    24.7    26.1    75.2
    ##  7 C00009    1166          84.3     67.2    8.32    9.08    13.0    22.7    78.9
    ##  8 C0000a     969          98.8     69.4   32.4    48.8     19.4    37.5    65.6
    ##  9 C0000b     136          91.0     52.9   14.7    25.8     19.4    17.6    87.5
    ## 10 C0000c     797          76.3     77.4   14.6    54.1     20.4    18.4    87.0
    ## # … with 40 more rows, 279 more variables: LIWC_function <dbl>,
    ## #   LIWC_pronoun <dbl>, LIWC_ppron <dbl>, LIWC_i <dbl>, LIWC_we <dbl>,
    ## #   LIWC_you <dbl>, LIWC_shehe <dbl>, LIWC_they <dbl>, LIWC_ipron <dbl>,
    ## #   LIWC_article <dbl>, LIWC_prep <dbl>, LIWC_auxverb <dbl>, LIWC_adverb <dbl>,
    ## #   LIWC_conj <dbl>, LIWC_negate <dbl>, LIWC_verb <dbl>, LIWC_adj <dbl>,
    ## #   LIWC_compare <dbl>, LIWC_interrog <dbl>, LIWC_number <dbl>,
    ## #   LIWC_quant <dbl>, LIWC_affect <dbl>, LIWC_posemo <dbl>, …
…
